('.\\build\\build\\pyi.win32\\hunter\\out00-PYZ.pyz',
 9,
 None,
 [('unittest.suite', 'c:\\Python27\\lib\\unittest\\suite.pyc', 'PYMODULE'), ('encodings.cp932', 'c:\\Python27\\lib\\encodings\\cp932.pyc', 'PYMODULE'), ('encodings.johab', 'c:\\Python27\\lib\\encodings\\johab.pyc', 'PYMODULE'), ('functools', 'c:\\Python27\\lib\\functools.pyc', 'PYMODULE'), ('random', 'c:\\Python27\\lib\\random.pyc', 'PYMODULE'), ('heapq', 'c:\\Python27\\lib\\heapq.pyc', 'PYMODULE'), ('subprocess', 'c:\\Python27\\lib\\subprocess.pyc', 'PYMODULE'), ('encodings.cp950', 'c:\\Python27\\lib\\encodings\\cp950.pyc', 'PYMODULE'), ('encodings.iso2022_jp_ext', 'c:\\Python27\\lib\\encodings\\iso2022_jp_ext.pyc', 'PYMODULE'), ('encodings.big5', 'c:\\Python27\\lib\\encodings\\big5.pyc', 'PYMODULE'), ('encodings.iso8859_14', 'c:\\Python27\\lib\\encodings\\iso8859_14.pyc', 'PYMODULE'), ('struct', 'c:\\Python27\\lib\\struct.pyc', 'PYMODULE'), ('encodings.cp1140', 'c:\\Python27\\lib\\encodings\\cp1140.pyc', 'PYMODULE'), ('tempfile', 'c:\\Python27\\lib\\tempfile.pyc', 'PYMODULE'), ('base64', 'c:\\Python27\\lib\\base64.pyc', 'PYMODULE'), ('encodings.cp775', 'c:\\Python27\\lib\\encodings\\cp775.pyc', 'PYMODULE'), ('collections', 'c:\\Python27\\lib\\collections.pyc', 'PYMODULE'), ('encodings.utf_32_le', 'c:\\Python27\\lib\\encodings\\utf_32_le.pyc', 'PYMODULE'), ('unittest.main', 'c:\\Python27\\lib\\unittest\\main.pyc', 'PYMODULE'), ('encodings.iso8859_10', 'c:\\Python27\\lib\\encodings\\iso8859_10.pyc', 'PYMODULE'), ('encodings.shift_jis', 'c:\\Python27\\lib\\encodings\\shift_jis.pyc', 'PYMODULE'), ('encodings.utf_7', 'c:\\Python27\\lib\\encodings\\utf_7.pyc', 'PYMODULE'), ('string', 'c:\\Python27\\lib\\string.pyc', 'PYMODULE'), ('encodings.euc_kr', 'c:\\Python27\\lib\\encodings\\euc_kr.pyc', 'PYMODULE'), ('encodings.mac_arabic', 'c:\\Python27\\lib\\encodings\\mac_arabic.pyc', 'PYMODULE'), ('encodings.utf_8', 'c:\\Python27\\lib\\encodings\\utf_8.pyc', 'PYMODULE'), ('zipfile', 'c:\\Python27\\lib\\zipfile.pyc', 'PYMODULE'), ('repr', 'c:\\Python27\\lib\\repr.pyc', 'PYMODULE'), ('unittest.util', 'c:\\Python27\\lib\\unittest\\util.pyc', 'PYMODULE'), ('distutils.text_file', 'c:\\Python27\\lib\\distutils\\text_file.pyc', 'PYMODULE'), ('encodings.cp037', 'c:\\Python27\\lib\\encodings\\cp037.pyc', 'PYMODULE'), ('encodings.base64_codec', 'c:\\Python27\\lib\\encodings\\base64_codec.pyc', 'PYMODULE'), ('encodings.cp864', 'c:\\Python27\\lib\\encodings\\cp864.pyc', 'PYMODULE'), ('encodings.cp862', 'c:\\Python27\\lib\\encodings\\cp862.pyc', 'PYMODULE'), ('cmd', 'c:\\Python27\\lib\\cmd.pyc', 'PYMODULE'), ('modules.core', 'Z:\\development\\projects\\hunter\\modules\\core.pyc', 'PYMODULE'), ('pprint', 'c:\\Python27\\lib\\pprint.pyc', 'PYMODULE'), ('threading', 'c:\\Python27\\lib\\threading.pyc', 'PYMODULE'), ('encodings.iso8859_9', 'c:\\Python27\\lib\\encodings\\iso8859_9.pyc', 'PYMODULE'), ('encodings.iso8859_8', 'c:\\Python27\\lib\\encodings\\iso8859_8.pyc', 'PYMODULE'), ('encodings.gb2312', 'c:\\Python27\\lib\\encodings\\gb2312.pyc', 'PYMODULE'), ('encodings.iso8859_3', 'c:\\Python27\\lib\\encodings\\iso8859_3.pyc', 'PYMODULE'), ('encodings.iso8859_2', 'c:\\Python27\\lib\\encodings\\iso8859_2.pyc', 'PYMODULE'), ('encodings.iso8859_1', 'c:\\Python27\\lib\\encodings\\iso8859_1.pyc', 'PYMODULE'), ('encodings.iso8859_7', 'c:\\Python27\\lib\\encodings\\iso8859_7.pyc', 'PYMODULE'), ('encodings.iso8859_6', 'c:\\Python27\\lib\\encodings\\iso8859_6.pyc', 'PYMODULE'), ('encodings.iso8859_5', 'c:\\Python27\\lib\\encodings\\iso8859_5.pyc', 'PYMODULE'), ('encodings.iso8859_4', 'c:\\Python27\\lib\\encodings\\iso8859_4.pyc', 'PYMODULE'), ('encodings.cp857', 'c:\\Python27\\lib\\encodings\\cp857.pyc', 'PYMODULE'), ('encodings.cp856', 'c:\\Python27\\lib\\encodings\\cp856.pyc', 'PYMODULE'), ('encodings.cp855', 'c:\\Python27\\lib\\encodings\\cp855.pyc', 'PYMODULE'), ('encodings.cp852', 'c:\\Python27\\lib\\encodings\\cp852.pyc', 'PYMODULE'), ('encodings.cp850', 'c:\\Python27\\lib\\encodings\\cp850.pyc', 'PYMODULE'), ('locale', 'c:\\Python27\\lib\\locale.pyc', 'PYMODULE'), ('distutils.sysconfig', 'c:\\Python27\\lib\\distutils\\sysconfig.pyc', 'PYMODULE'), ('encodings.cp858', 'c:\\Python27\\lib\\encodings\\cp858.pyc', 'PYMODULE'), ('atexit', 'c:\\Python27\\lib\\atexit.pyc', 'PYMODULE'), ('encodings', 'c:\\Python27\\lib\\encodings\\__init__.pyc', 'PYMODULE'), ('calendar', 'c:\\Python27\\lib\\calendar.pyc', 'PYMODULE'), ('encodings.mac_iceland', 'c:\\Python27\\lib\\encodings\\mac_iceland.pyc', 'PYMODULE'), ('encodings.gbk', 'c:\\Python27\\lib\\encodings\\gbk.pyc', 'PYMODULE'), ('encodings.shift_jis_2004', 'c:\\Python27\\lib\\encodings\\shift_jis_2004.pyc', 'PYMODULE'), ('abc', 'c:\\Python27\\lib\\abc.pyc', 'PYMODULE'), ('os2emxpath', 'c:\\Python27\\lib\\os2emxpath.pyc', 'PYMODULE'), ('py_compile', 'c:\\Python27\\lib\\py_compile.pyc', 'PYMODULE'), ('encodings.palmos', 'c:\\Python27\\lib\\encodings\\palmos.pyc', 'PYMODULE'), ('tarfile', 'c:\\Python27\\lib\\tarfile.pyc', 'PYMODULE'), ('re', 'c:\\Python27\\lib\\re.pyc', 'PYMODULE'), ('ntpath', 'c:\\Python27\\lib\\ntpath.pyc', 'PYMODULE'), ('encodings.iso2022_jp', 'c:\\Python27\\lib\\encodings\\iso2022_jp.pyc', 'PYMODULE'), ('encodings.utf_8_sig', 'c:\\Python27\\lib\\encodings\\utf_8_sig.pyc', 'PYMODULE'), ('encodings.koi8_r', 'c:\\Python27\\lib\\encodings\\koi8_r.pyc', 'PYMODULE'), ('difflib', 'c:\\Python27\\lib\\difflib.pyc', 'PYMODULE'), ('encodings.koi8_u', 'c:\\Python27\\lib\\encodings\\koi8_u.pyc', 'PYMODULE'), ('encodings.mac_turkish', 'c:\\Python27\\lib\\encodings\\mac_turkish.pyc', 'PYMODULE'), ('unittest.case', 'c:\\Python27\\lib\\unittest\\case.pyc', 'PYMODULE'), ('encodings.undefined', 'c:\\Python27\\lib\\encodings\\undefined.pyc', 'PYMODULE'), ('encodings.mac_croatian', 'c:\\Python27\\lib\\encodings\\mac_croatian.pyc', 'PYMODULE'), ('optparse', 'c:\\Python27\\lib\\optparse.pyc', 'PYMODULE'), ('UserDict', 'c:\\Python27\\lib\\UserDict.pyc', 'PYMODULE'), ('encodings.cp1026', 'c:\\Python27\\lib\\encodings\\cp1026.pyc', 'PYMODULE'), ('encodings.mac_romanian', 'c:\\Python27\\lib\\encodings\\mac_romanian.pyc', 'PYMODULE'), ('encodings.iso2022_jp_1', 'c:\\Python27\\lib\\encodings\\iso2022_jp_1.pyc', 'PYMODULE'), ('encodings.iso2022_jp_3', 'c:\\Python27\\lib\\encodings\\iso2022_jp_3.pyc', 'PYMODULE'), ('encodings.iso2022_jp_2', 'c:\\Python27\\lib\\encodings\\iso2022_jp_2.pyc', 'PYMODULE'), ('encodings.utf_16_le', 'c:\\Python27\\lib\\encodings\\utf_16_le.pyc', 'PYMODULE'), ('fnmatch', 'c:\\Python27\\lib\\fnmatch.pyc', 'PYMODULE'), ('logging', 'c:\\Python27\\lib\\logging\\__init__.pyc', 'PYMODULE'), ('codecs', 'c:\\Python27\\lib\\codecs.pyc', 'PYMODULE'), ('encodings.mac_roman', 'c:\\Python27\\lib\\encodings\\mac_roman.pyc', 'PYMODULE'), ('unittest.signals', 'c:\\Python27\\lib\\unittest\\signals.pyc', 'PYMODULE'), ('quopri', 'c:\\Python27\\lib\\quopri.pyc', 'PYMODULE'), ('unittest.loader', 'c:\\Python27\\lib\\unittest\\loader.pyc', 'PYMODULE'), ('encodings.uu_codec', 'c:\\Python27\\lib\\encodings\\uu_codec.pyc', 'PYMODULE'), ('encodings.ptcp154', 'c:\\Python27\\lib\\encodings\\ptcp154.pyc', 'PYMODULE'), ('StringIO', 'c:\\Python27\\lib\\StringIO.pyc', 'PYMODULE'), ('encodings.euc_jisx0213', 'c:\\Python27\\lib\\encodings\\euc_jisx0213.pyc', 'PYMODULE'), ('traceback', 'c:\\Python27\\lib\\traceback.pyc', 'PYMODULE'), ('modules', 'Z:\\development\\projects\\hunter\\modules\\__init__.pyc', 'PYMODULE'), ('encodings.iso2022_jp_2004', 'c:\\Python27\\lib\\encodings\\iso2022_jp_2004.pyc', 'PYMODULE'), ('weakref', 'c:\\Python27\\lib\\weakref.pyc', 'PYMODULE'), ('distutils.spawn', 'c:\\Python27\\lib\\distutils\\spawn.pyc', 'PYMODULE'), ('opcode', 'c:\\Python27\\lib\\opcode.pyc', 'PYMODULE'), ('doctest', 'c:\\Python27\\lib\\doctest.pyc', 'PYMODULE'), ('encodings.tis_620', 'c:\\Python27\\lib\\encodings\\tis_620.pyc', 'PYMODULE'), ('encodings.cp720', 'c:\\Python27\\lib\\encodings\\cp720.pyc', 'PYMODULE'), ('dis', 'c:\\Python27\\lib\\dis.pyc', 'PYMODULE'), ('os', 'c:\\Python27\\lib\\os.pyc', 'PYMODULE'), ('__future__', 'c:\\Python27\\lib\\__future__.pyc', 'PYMODULE'), ('encodings.cp875', 'c:\\Python27\\lib\\encodings\\cp875.pyc', 'PYMODULE'), ('encodings.cp874', 'c:\\Python27\\lib\\encodings\\cp874.pyc', 'PYMODULE'), ('encodings.rot_13', 'c:\\Python27\\lib\\encodings\\rot_13.pyc', 'PYMODULE'), ('unittest', 'c:\\Python27\\lib\\unittest\\__init__.pyc', 'PYMODULE'), ('encodings.bz2_codec', 'c:\\Python27\\lib\\encodings\\bz2_codec.pyc', 'PYMODULE'), ('dummy_thread', 'c:\\Python27\\lib\\dummy_thread.pyc', 'PYMODULE'), ('encodings.unicode_escape', 'c:\\Python27\\lib\\encodings\\unicode_escape.pyc', 'PYMODULE'), ('hashlib', 'c:\\Python27\\lib\\hashlib.pyc', 'PYMODULE'), ('encodings.punycode', 'c:\\Python27\\lib\\encodings\\punycode.pyc', 'PYMODULE'), ('_threading_local', 'c:\\Python27\\lib\\_threading_local.pyc', 'PYMODULE'), ('encodings.mac_centeuro', 'c:\\Python27\\lib\\encodings\\mac_centeuro.pyc', 'PYMODULE'), ('encodings.mac_farsi', 'c:\\Python27\\lib\\encodings\\mac_farsi.pyc', 'PYMODULE'), ('posixpath', 'c:\\Python27\\lib\\posixpath.pyc', 'PYMODULE'), ('encodings.cp437', 'c:\\Python27\\lib\\encodings\\cp437.pyc', 'PYMODULE'), ('encodings.euc_jis_2004', 'c:\\Python27\\lib\\encodings\\euc_jis_2004.pyc', 'PYMODULE'), ('encodings.utf_16', 'c:\\Python27\\lib\\encodings\\utf_16.pyc', 'PYMODULE'), ('sre_constants', 'c:\\Python27\\lib\\sre_constants.pyc', 'PYMODULE'), ('encodings.cp737', 'c:\\Python27\\lib\\encodings\\cp737.pyc', 'PYMODULE'), ('encodings.utf_16_be', 'c:\\Python27\\lib\\encodings\\utf_16_be.pyc', 'PYMODULE'), ('encodings.latin_1', 'c:\\Python27\\lib\\encodings\\latin_1.pyc', 'PYMODULE'), ('tokenize', 'c:\\Python27\\lib\\tokenize.pyc', 'PYMODULE'), ('encodings.utf_32', 'c:\\Python27\\lib\\encodings\\utf_32.pyc', 'PYMODULE'), ('encodings.charmap', 'c:\\Python27\\lib\\encodings\\charmap.pyc', 'PYMODULE'), ('encodings.iso8859_15', 'c:\\Python27\\lib\\encodings\\iso8859_15.pyc', 'PYMODULE'), ('textwrap', 'c:\\Python27\\lib\\textwrap.pyc', 'PYMODULE'), ('encodings.hp_roman8', 'c:\\Python27\\lib\\encodings\\hp_roman8.pyc', 'PYMODULE'), ('inspect', 'c:\\Python27\\lib\\inspect.pyc', 'PYMODULE'), ('encodings.cp1253', 'c:\\Python27\\lib\\encodings\\cp1253.pyc', 'PYMODULE'), ('encodings.cp1252', 'c:\\Python27\\lib\\encodings\\cp1252.pyc', 'PYMODULE'), ('encodings.cp1006', 'c:\\Python27\\lib\\encodings\\cp1006.pyc', 'PYMODULE'), ('encodings.iso8859_16', 'c:\\Python27\\lib\\encodings\\iso8859_16.pyc', 'PYMODULE'), ('encodings.cp424', 'c:\\Python27\\lib\\encodings\\cp424.pyc', 'PYMODULE'), ('copy', 'c:\\Python27\\lib\\copy.pyc', 'PYMODULE'), ('encodings.iso8859_13', 'c:\\Python27\\lib\\encodings\\iso8859_13.pyc', 'PYMODULE'), ('bdb', 'c:\\Python27\\lib\\bdb.pyc', 'PYMODULE'), ('encodings.iso8859_11', 'c:\\Python27\\lib\\encodings\\iso8859_11.pyc', 'PYMODULE'), ('distutils.log', 'c:\\Python27\\lib\\distutils\\log.pyc', 'PYMODULE'), ('keyword', 'c:\\Python27\\lib\\keyword.pyc', 'PYMODULE'), ('distutils', 'c:\\Python27\\lib\\distutils\\__init__.pyc', 'PYMODULE'), ('shlex', 'c:\\Python27\\lib\\shlex.pyc', 'PYMODULE'), ('encodings.cp500', 'c:\\Python27\\lib\\encodings\\cp500.pyc', 'PYMODULE'), ('stringprep', 'c:\\Python27\\lib\\stringprep.pyc', 'PYMODULE'), ('encodings.unicode_internal', 'c:\\Python27\\lib\\encodings\\unicode_internal.pyc', 'PYMODULE'), ('encodings.iso2022_kr', 'c:\\Python27\\lib\\encodings\\iso2022_kr.pyc', 'PYMODULE'), ('encodings.aliases', 'c:\\Python27\\lib\\encodings\\aliases.pyc', 'PYMODULE'), ('sre_parse', 'c:\\Python27\\lib\\sre_parse.pyc', 'PYMODULE'), ('pickle', 'c:\\Python27\\lib\\pickle.pyc', 'PYMODULE'), ('encodings.hz', 'c:\\Python27\\lib\\encodings\\hz.pyc', 'PYMODULE'), ('encodings.euc_jp', 'c:\\Python27\\lib\\encodings\\euc_jp.pyc', 'PYMODULE'), ('unittest.runner', 'c:\\Python27\\lib\\unittest\\runner.pyc', 'PYMODULE'), ('copy_reg', 'c:\\Python27\\lib\\copy_reg.pyc', 'PYMODULE'), ('sre_compile', 'c:\\Python27\\lib\\sre_compile.pyc', 'PYMODULE'), ('encodings.cp1258', 'c:\\Python27\\lib\\encodings\\cp1258.pyc', 'PYMODULE'), ('encodings.cp1257', 'c:\\Python27\\lib\\encodings\\cp1257.pyc', 'PYMODULE'), ('encodings.cp1256', 'c:\\Python27\\lib\\encodings\\cp1256.pyc', 'PYMODULE'), ('encodings.cp1255', 'c:\\Python27\\lib\\encodings\\cp1255.pyc', 'PYMODULE'), ('encodings.cp1254', 'c:\\Python27\\lib\\encodings\\cp1254.pyc', 'PYMODULE'), ('iu', 'c:\\Python27\\pyinstaller-2.0\\PyInstaller\\loader\\iu.pyc', 'PYMODULE'), ('site', 'c:\\Python27\\pyinstaller-2.0\\PyInstaller\\fake\\fake-site.pyc', 'PYMODULE'), ('encodings.cp1251', 'c:\\Python27\\lib\\encodings\\cp1251.pyc', 'PYMODULE'), ('encodings.cp1250', 'c:\\Python27\\lib\\encodings\\cp1250.pyc', 'PYMODULE'), ('bisect', 'c:\\Python27\\lib\\bisect.pyc', 'PYMODULE'), ('gzip', 'c:\\Python27\\lib\\gzip.pyc', 'PYMODULE'), ('encodings.string_escape', 'c:\\Python27\\lib\\encodings\\string_escape.pyc', 'PYMODULE'), ('encodings.mac_cyrillic', 'c:\\Python27\\lib\\encodings\\mac_cyrillic.pyc', 'PYMODULE'), ('shutil', 'c:\\Python27\\lib\\shutil.pyc', 'PYMODULE'), ('encodings.utf_32_be', 'c:\\Python27\\lib\\encodings\\utf_32_be.pyc', 'PYMODULE'), ('archive', 'c:\\Python27\\pyinstaller-2.0\\PyInstaller\\loader\\archive.pyc', 'PYMODULE'), ('encodings.zlib_codec', 'c:\\Python27\\lib\\encodings\\zlib_codec.pyc', 'PYMODULE'), ('unittest.result', 'c:\\Python27\\lib\\unittest\\result.pyc', 'PYMODULE'), ('linecache', 'c:\\Python27\\lib\\linecache.pyc', 'PYMODULE'), ('encodings.quopri_codec', 'c:\\Python27\\lib\\encodings\\quopri_codec.pyc', 'PYMODULE'), ('encodings.cp949', 'c:\\Python27\\lib\\encodings\\cp949.pyc', 'PYMODULE'), ('gettext', 'c:\\Python27\\lib\\gettext.pyc', 'PYMODULE'), ('encodings.hex_codec', 'c:\\Python27\\lib\\encodings\\hex_codec.pyc', 'PYMODULE'), ('_abcoll', 'c:\\Python27\\lib\\_abcoll.pyc', 'PYMODULE'), ('encodings.mac_latin2', 'c:\\Python27\\lib\\encodings\\mac_latin2.pyc', 'PYMODULE'), ('encodings.cp869', 'c:\\Python27\\lib\\encodings\\cp869.pyc', 'PYMODULE'), ('encodings.cp866', 'c:\\Python27\\lib\\encodings\\cp866.pyc', 'PYMODULE'), ('getopt', 'c:\\Python27\\lib\\getopt.pyc', 'PYMODULE'), ('encodings.big5hkscs', 'c:\\Python27\\lib\\encodings\\big5hkscs.pyc', 'PYMODULE'), ('encodings.cp865', 'c:\\Python27\\lib\\encodings\\cp865.pyc', 'PYMODULE'), ('encodings.cp863', 'c:\\Python27\\lib\\encodings\\cp863.pyc', 'PYMODULE'), ('encodings.cp860', 'c:\\Python27\\lib\\encodings\\cp860.pyc', 'PYMODULE'), ('encodings.cp861', 'c:\\Python27\\lib\\encodings\\cp861.pyc', 'PYMODULE'), ('genericpath', 'c:\\Python27\\lib\\genericpath.pyc', 'PYMODULE'), ('stat', 'c:\\Python27\\lib\\stat.pyc', 'PYMODULE'), ('io', 'c:\\Python27\\lib\\io.pyc', 'PYMODULE'), ('warnings', 'c:\\Python27\\lib\\warnings.pyc', 'PYMODULE'), ('encodings.ascii', 'c:\\Python27\\lib\\encodings\\ascii.pyc', 'PYMODULE'), ('encodings.shift_jisx0213', 'c:\\Python27\\lib\\encodings\\shift_jisx0213.pyc', 'PYMODULE'), ('encodings.idna', 'c:\\Python27\\lib\\encodings\\idna.pyc', 'PYMODULE'), ('types', 'c:\\Python27\\lib\\types.pyc', 'PYMODULE'), ('encodings.gb18030', 'c:\\Python27\\lib\\encodings\\gb18030.pyc', 'PYMODULE'), ('encodings.mac_greek', 'c:\\Python27\\lib\\encodings\\mac_greek.pyc', 'PYMODULE'), ('encodings.raw_unicode_escape', 'c:\\Python27\\lib\\encodings\\raw_unicode_escape.pyc', 'PYMODULE'), ('encodings.mbcs', 'c:\\Python27\\lib\\encodings\\mbcs.pyc', 'PYMODULE'), ('distutils.errors', 'c:\\Python27\\lib\\distutils\\errors.pyc', 'PYMODULE'), ('pdb', 'c:\\Python27\\lib\\pdb.pyc', 'PYMODULE'), ('_weakrefset', 'c:\\Python27\\lib\\_weakrefset.pyc', 'PYMODULE'), ('_strptime', 'c:\\Python27\\lib\\_strptime.pyc', 'PYMODULE'), ('token', 'c:\\Python27\\lib\\token.pyc', 'PYMODULE')])
