('.\\build\\build\\pyi.win32\\hunter\\out00-PKG.pkg',
 {'BINARY': 1,
  'DATA': 1,
  'EXECUTABLE': 1,
  'EXTENSION': 1,
  'PYMODULE': 1,
  'PYSOURCE': 1},
 [('out00-PYZ.pyz', '.\\build\\build\\pyi.win32\\hunter\\out00-PYZ.pyz', 'PYZ'), ('iu', 'c:\\Python27\\pyinstaller-2.0\\PyInstaller\\loader\\iu.pyc', 'PYMODULE'), ('struct', 'c:\\Python27\\lib\\struct.pyc', 'PYMODULE'), ('archive', 'c:\\Python27\\pyinstaller-2.0\\PyInstaller\\loader\\archive.pyc', 'PYMODULE'), ('_pyi_bootstrap', 'c:\\Python27\\pyinstaller-2.0\\support\\_pyi_bootstrap.py', 'PYSOURCE'), ('carchive', 'c:\\Python27\\pyinstaller-2.0\\PyInstaller\\loader\\carchive.py', 'PYSOURCE'), ('pyi_rth_encodings', 'c:\\Python27\\pyinstaller-2.0\\support/rthooks/pyi_rth_encodings.py', 'PYSOURCE'), ('hunter', '.\\hunter.py', 'PYSOURCE'), ('Microsoft.VC90.CRT.manifest', 'C:\\Windows\\WinSxS\\Manifests\\x86_microsoft.vc90.crt_1fc8b3b9a1e18e3b_9.0.21022.8_none_bcb86ed6ac711f91.manifest', 'BINARY'), ('msvcr90.dll', 'C:\\Windows\\WinSxS\\x86_microsoft.vc90.crt_1fc8b3b9a1e18e3b_9.0.21022.8_none_bcb86ed6ac711f91\\msvcr90.dll', 'BINARY'), ('msvcp90.dll', 'C:\\Windows\\WinSxS\\x86_microsoft.vc90.crt_1fc8b3b9a1e18e3b_9.0.21022.8_none_bcb86ed6ac711f91\\msvcp90.dll', 'BINARY'), ('msvcm90.dll', 'C:\\Windows\\WinSxS\\x86_microsoft.vc90.crt_1fc8b3b9a1e18e3b_9.0.21022.8_none_bcb86ed6ac711f91\\msvcm90.dll', 'BINARY'), ('python27.dll', 'C:\\Windows\\system32\\python27.dll', 'BINARY'), ('_hashlib', 'c:\\Python27\\DLLs\\_hashlib.pyd', 'EXTENSION'), ('select', 'c:\\Python27\\DLLs\\select.pyd', 'EXTENSION'), ('unicodedata', 'c:\\Python27\\DLLs\\unicodedata.pyd', 'EXTENSION'), ('bz2', 'c:\\Python27\\DLLs\\bz2.pyd', 'EXTENSION'), ('include\\pyconfig.h', 'c:\\Python27\\include\\pyconfig.h', 'DATA'), ('hunter.exe.manifest', '.\\build\\build\\pyi.win32\\hunter\\hunter.exe.manifest', 'BINARY')],
 0,
 None,
 True,
 0)
